<?xml version="1.0" encoding="windows-1252" standalone="no"?>
<!DOCTYPE log SYSTEM "logger.dtd">
<log>
<record>
  <date>2022-01-06T13:10:31.688083Z</date>
  <millis>1641474631688</millis>
  <nanos>83000</nanos>
  <sequence>0</sequence>
  <logger>be.kdg.be.be.be.kdg.JeugdbewegingProject.model.Jeugdbeweging</logger>
  <level>SEVERE</level>
  <class>be.be.kdg.be.be.kdg.JeugdbewegingProject.model.Jeugdbeweging</class>
  <method>setOppervlakte</method>
  <thread>1</thread>
  <message>De oppervlakte (waarde:5.0) moet tussen 10 en 10000 M² liggen voor jeugdbeweging pleplo</message>
</record>
<record>
  <date>2022-01-06T13:10:31.731161300Z</date>
  <millis>1641474631731</millis>
  <nanos>161300</nanos>
  <sequence>1</sequence>
  <logger>be.kdg.be.be.be.kdg.JeugdbewegingProject.model.Jeugdbeweging</logger>
  <level>SEVERE</level>
  <class>be.be.kdg.be.be.kdg.JeugdbewegingProject.model.Jeugdbeweging</class>
  <method>setAantalLeden</method>
  <thread>1</thread>
  <message>Het aantal leden (waarde:5) moet tussen de 10 en 2500 liggen voor jeugdbeweging pleplo</message>
</record>
<record>
  <date>2022-01-06T13:10:31.733795400Z</date>
  <millis>1641474631733</millis>
  <nanos>795400</nanos>
  <sequence>2</sequence>
  <logger>be.kdg.be.be.be.kdg.JeugdbewegingProject.model.Jeugdbeweging</logger>
  <level>SEVERE</level>
  <class>be.be.kdg.be.be.kdg.JeugdbewegingProject.model.Jeugdbeweging</class>
  <method>setAantalLeiding</method>
  <thread>1</thread>
  <message>Het aantal leiding (waarde:5) moet tussen de 10 en 500 liggen voor jeugdbeweging pleplo</message>
</record>
<record>
  <date>2022-01-06T13:10:31.735285900Z</date>
  <millis>1641474631735</millis>
  <nanos>285900</nanos>
  <sequence>3</sequence>
  <logger>be.kdg.be.be.be.kdg.JeugdbewegingProject.model.Jeugdbeweging</logger>
  <level>SEVERE</level>
  <class>be.be.kdg.be.be.kdg.JeugdbewegingProject.model.Jeugdbeweging</class>
  <method>setDatumOprichting</method>
  <thread>1</thread>
  <message>De oprichtings datum (waarde:1500-10-10) kan niet voor 1900 of na de datum van vandaag vallen voor jeugdbeweging pleplo</message>
</record>
<record>
  <date>2022-01-06T13:10:31.752150100Z</date>
  <millis>1641474631752</millis>
  <nanos>150100</nanos>
  <sequence>4</sequence>
  <logger>be.kdg.be.be.be.kdg.JeugdbewegingProject.model.Jeugdbewegingen</logger>
  <level>FINER</level>
  <class>be.be.kdg.be.be.kdg.JeugdbewegingProject.model.Jeugdbewegingen</class>
  <method>add</method>
  <thread>1</thread>
  <message>Object toegevoegd aan jeugdbewegingen: naam:               pleplo, oppervlakte:   300.00, aantal leden:   100, aantal leiding:    14, type:      chiro, datum oprichting: 1989-10-10</message>
</record>
<record>
  <date>2022-01-06T13:10:31.752646300Z</date>
  <millis>1641474631752</millis>
  <nanos>646300</nanos>
  <sequence>5</sequence>
  <logger>be.kdg.be.be.be.kdg.JeugdbewegingProject.model.Jeugdbewegingen</logger>
  <level>FINER</level>
  <class>be.be.kdg.be.be.kdg.JeugdbewegingProject.model.Jeugdbewegingen</class>
  <method>add</method>
  <thread>1</thread>
  <message>Object toegevoegd aan jeugdbewegingen: naam:        chiro centurm, oppervlakte:   300.00, aantal leden:   100, aantal leiding:    14, type:      chiro, datum oprichting: 1989-10-10</message>
</record>
<record>
  <date>2022-01-06T13:10:31.753142100Z</date>
  <millis>1641474631753</millis>
  <nanos>142100</nanos>
  <sequence>6</sequence>
  <logger>be.kdg.be.be.be.kdg.JeugdbewegingProject.model.Jeugdbewegingen</logger>
  <level>FINER</level>
  <class>be.be.kdg.be.be.kdg.JeugdbewegingProject.model.Jeugdbewegingen</class>
  <method>add</method>
  <thread>1</thread>
  <message>Object toegevoegd aan jeugdbewegingen: naam:     chiro bamischijf, oppervlakte:   300.00, aantal leden:   100, aantal leiding:    14, type:      chiro, datum oprichting: 1989-10-10</message>
</record>
<record>
  <date>2022-01-06T13:10:31.754133800Z</date>
  <millis>1641474631754</millis>
  <nanos>133800</nanos>
  <sequence>7</sequence>
  <logger>be.kdg.be.be.be.kdg.JeugdbewegingProject.model.Jeugdbewegingen</logger>
  <level>FINER</level>
  <class>be.be.kdg.be.be.kdg.JeugdbewegingProject.model.Jeugdbewegingen</class>
  <method>add</method>
  <thread>1</thread>
  <message>Object toegevoegd aan jeugdbewegingen: naam: chiro het bang schaapke, oppervlakte:   300.00, aantal leden:   100, aantal leiding:    14, type:      chiro, datum oprichting: 1989-10-10</message>
</record>
<record>
  <date>2022-01-06T13:10:31.754629900Z</date>
  <millis>1641474631754</millis>
  <nanos>629900</nanos>
  <sequence>8</sequence>
  <logger>be.kdg.be.be.be.kdg.JeugdbewegingProject.model.Jeugdbewegingen</logger>
  <level>FINER</level>
  <class>be.be.kdg.be.be.kdg.JeugdbewegingProject.model.Jeugdbewegingen</class>
  <method>add</method>
  <thread>1</thread>
  <message>Object toegevoegd aan jeugdbewegingen: naam:       chiro dol fijn, oppervlakte:   300.00, aantal leden:   100, aantal leiding:    14, type:      chiro, datum oprichting: 1989-10-10</message>
</record>
<record>
  <date>2022-01-06T13:10:31.755126Z</date>
  <millis>1641474631755</millis>
  <nanos>126000</nanos>
  <sequence>9</sequence>
  <logger>be.kdg.be.be.be.kdg.JeugdbewegingProject.model.Jeugdbewegingen</logger>
  <level>FINER</level>
  <class>be.be.kdg.be.be.kdg.JeugdbewegingProject.model.Jeugdbewegingen</class>
  <method>add</method>
  <thread>1</thread>
  <message>Object toegevoegd aan jeugdbewegingen: naam:         chiro walrus, oppervlakte:   300.00, aantal leden:   100, aantal leiding:    14, type:      chiro, datum oprichting: 1989-10-10</message>
</record>
</log>
