2022/01/06 14:12:59.374 Level: SEVERE melding: De oppervlakte (waarde:5.0) moet tussen 10 en 10000 M² liggen voor jeugdbeweging pleplo
2022/01/06 14:12:59.412 Level: SEVERE melding: Het aantal leden (waarde:5) moet tussen de 10 en 2500 liggen voor jeugdbeweging pleplo
2022/01/06 14:12:59.413 Level: SEVERE melding: Het aantal leiding (waarde:5) moet tussen de 10 en 500 liggen voor jeugdbeweging pleplo
2022/01/06 14:12:59.413 Level: SEVERE melding: De oprichtings datum (waarde:1500-10-10) kan niet voor 1900 of na de datum van vandaag vallen voor jeugdbeweging pleplo
2022/01/06 14:12:59.430 Level: FINER melding: Object toegevoegd aan jeugdbewegingen: naam:               pleplo, oppervlakte:   300.00, aantal leden:   100, aantal leiding:    14, type:      chiro, datum oprichting: 1989-10-10
2022/01/06 14:12:59.434 Level: FINER melding: Object toegevoegd aan jeugdbewegingen: naam:        chiro centurm, oppervlakte:   300.00, aantal leden:   100, aantal leiding:    14, type:      chiro, datum oprichting: 1989-10-10
2022/01/06 14:12:59.434 Level: FINER melding: Object toegevoegd aan jeugdbewegingen: naam:     chiro bamischijf, oppervlakte:   300.00, aantal leden:   100, aantal leiding:    14, type:      chiro, datum oprichting: 1989-10-10
2022/01/06 14:12:59.436 Level: FINER melding: Object toegevoegd aan jeugdbewegingen: naam: chiro het bang schaapke, oppervlakte:   300.00, aantal leden:   100, aantal leiding:    14, type:      chiro, datum oprichting: 1989-10-10
2022/01/06 14:12:59.436 Level: FINER melding: Object toegevoegd aan jeugdbewegingen: naam:       chiro dol fijn, oppervlakte:   300.00, aantal leden:   100, aantal leiding:    14, type:      chiro, datum oprichting: 1989-10-10
2022/01/06 14:12:59.437 Level: FINER melding: Object toegevoegd aan jeugdbewegingen: naam:         chiro walrus, oppervlakte:   300.00, aantal leden:   100, aantal leiding:    14, type:      chiro, datum oprichting: 1989-10-10
