2022/01/06 14:12:57.762 Level: SEVERE melding: De oppervlakte (waarde:5.0) moet tussen 10 en 10000 M² liggen voor jeugdbeweging pleplo
2022/01/06 14:12:57.806 Level: SEVERE melding: Het aantal leden (waarde:5) moet tussen de 10 en 2500 liggen voor jeugdbeweging pleplo
2022/01/06 14:12:57.807 Level: SEVERE melding: Het aantal leiding (waarde:5) moet tussen de 10 en 500 liggen voor jeugdbeweging pleplo
2022/01/06 14:12:57.807 Level: SEVERE melding: De oprichtings datum (waarde:1500-10-10) kan niet voor 1900 of na de datum van vandaag vallen voor jeugdbeweging pleplo
2022/01/06 14:12:57.822 Level: FINER melding: Object toegevoegd aan jeugdbewegingen: naam:               pleplo, oppervlakte:   300.00, aantal leden:   100, aantal leiding:    14, type:      chiro, datum oprichting: 1989-10-10
2022/01/06 14:12:57.825 Level: FINER melding: Object toegevoegd aan jeugdbewegingen: naam:        chiro centurm, oppervlakte:   300.00, aantal leden:   100, aantal leiding:    14, type:      chiro, datum oprichting: 1989-10-10
2022/01/06 14:12:57.827 Level: FINER melding: Object toegevoegd aan jeugdbewegingen: naam:     chiro bamischijf, oppervlakte:   300.00, aantal leden:   100, aantal leiding:    14, type:      chiro, datum oprichting: 1989-10-10
2022/01/06 14:12:57.829 Level: FINER melding: Object toegevoegd aan jeugdbewegingen: naam: chiro het bang schaapke, oppervlakte:   300.00, aantal leden:   100, aantal leiding:    14, type:      chiro, datum oprichting: 1989-10-10
2022/01/06 14:12:57.830 Level: FINER melding: Object toegevoegd aan jeugdbewegingen: naam:       chiro dol fijn, oppervlakte:   300.00, aantal leden:   100, aantal leiding:    14, type:      chiro, datum oprichting: 1989-10-10
2022/01/06 14:12:57.831 Level: FINER melding: Object toegevoegd aan jeugdbewegingen: naam:         chiro walrus, oppervlakte:   300.00, aantal leden:   100, aantal leiding:    14, type:      chiro, datum oprichting: 1989-10-10
